<?xml version="1.0" encoding="iso-8859-1"?>
<!-- Generator: Adobe Illustrator 19.0.0, SVG Export Plug-In . SVG Version: 6.00 Build 0)  -->
<svg version="1.1" id="Capa_1" xmlns="http://www.w3.org/2000/svg" xmlns:xlink="http://www.w3.org/1999/xlink" x="0px" y="0px"
	 viewBox="0 0 374.24 374.24" style="enable-background:new 0 0 374.24 374.24;" xml:space="preserve">
<g>
	<g>
		<path d="M251.28,183.84L251.28,183.84c13.446-13.36,21.018-31.525,21.04-50.48v-1.84c27.327-3.652,46.519-28.766,42.867-56.093
			c-2.984-22.323-20.544-39.883-42.867-42.867V12.08c0.01-3.208-1.257-6.287-3.52-8.56c-2.273-2.263-5.352-3.53-8.56-3.52H114
			c-3.208-0.01-6.287,1.257-8.56,3.52c-2.263,2.273-3.53,5.352-3.52,8.56v20.48c-27.327,3.652-46.519,28.766-42.867,56.093
			c2.984,22.323,20.544,39.883,42.867,42.867v1.84c0.191,34.401,24.691,63.861,58.48,70.32v62.4h-4.32
			c-5.22-0.002-10.228,2.07-13.92,5.76c-3.69,3.692-5.762,8.7-5.76,13.92V306c-23.136,3.911-40.054,23.975-40,47.44v14
			c0,3.755,3.044,6.8,6.8,6.8h173.76c3.756,0,6.8-3.044,6.8-6.8v-14c0.054-23.465-16.863-43.529-40-47.44v-20.24
			c0-10.913-8.847-19.76-19.76-19.76c0,0,0,0,0,0h-4.72v-63.52C231.389,199.163,242.421,192.737,251.28,183.84z M272.32,46.4
			c19.683,3.863,32.508,22.952,28.645,42.635c-2.842,14.481-14.164,25.803-28.645,28.645V46.4z M101.92,117.68
			c-19.683-3.863-32.508-22.952-28.645-42.635C76.117,60.564,87.439,49.242,101.92,46.4V117.68z M260,329.12
			c6.403,6.358,10.052,14.977,10.16,24v7.12h-160v-7.12c0.044-19.025,15.455-34.436,34.48-34.48h90.64
			C244.599,318.641,253.52,322.422,260,329.12z M223.92,279.68c3.358,0,6.08,2.722,6.08,6.08v19.52h-80v-19.52
			c-0.011-1.617,0.622-3.171,1.76-4.32c1.149-1.138,2.703-1.771,4.32-1.76L223.92,279.68z M174.08,266v-61.12h27.12h4.8v61.36
			L174.08,266z M201.44,191.2h-0.24h-27.76c-32.032,0.089-58.072-25.807-58.16-57.84c0,0,0,0,0,0v-120h144v120
			C259.192,165.268,233.348,191.112,201.44,191.2z"/>
	</g>
</g>
<g>
</g>
<g>
</g>
<g>
</g>
<g>
</g>
<g>
</g>
<g>
</g>
<g>
</g>
<g>
</g>
<g>
</g>
<g>
</g>
<g>
</g>
<g>
</g>
<g>
</g>
<g>
</g>
<g>
</g>
</svg>
